MQTTFormat.c:31:13:MQTTPacket_getName	16	static
MQTTFormat.c:37:5:MQTTStringFormat_connect	80	static
MQTTFormat.c:61:5:MQTTStringFormat_connack	48	static
MQTTFormat.c:68:5:MQTTStringFormat_publish	88	static
MQTTFormat.c:80:5:MQTTStringFormat_ack	48	static
MQTTFormat.c:89:5:MQTTStringFormat_subscribe	64	static
MQTTFormat.c:100:5:MQTTStringFormat_suback	40	static
MQTTFormat.c:107:5:MQTTStringFormat_unsubscribe	56	static
