MQTTUnsubscribeClient.c:28:5:MQTTSerialize_unsubscribeLength	24	static
MQTTUnsubscribeClient.c:49:5:MQTTSerialize_unsubscribe	56	static
MQTTUnsubscribeClient.c:92:5:MQTTDeserialize_unsuback	48	static
