stm32l0xx_it.c:80:6:NMI_Handler	8	static
stm32l0xx_it.c:93:6:HardFault_Handler	8	static
stm32l0xx_it.c:115:6:PVD_IRQHandler	8	static
stm32l0xx_it.c:129:6:RTC_IRQHandler	8	static
stm32l0xx_it.c:143:6:ADC1_COMP_IRQHandler	8	static
stm32l0xx_it.c:157:6:TIM2_IRQHandler	8	static
stm32l0xx_it.c:171:6:USART1_IRQHandler	8	static
stm32l0xx_it.c:187:6:USART2_IRQHandler	8	static
